{
  "project_info": {
    "project_number": "84354792132",
    "firebase_url": "https://banderasfirestore.firebaseio.com",
    "project_id": "banderasfirestore",
    "storage_bucket": "banderasfirestore.appspot.com"
  },
  "client": [
    {
      "client_info": {
        "mobilesdk_app_id": "1:84354792132:android:3fa8d2c1593f839578a791",
        "android_client_info": {
          "package_name": "com.example.countryslist"
        }
      },
      "oauth_client": [
        {
          "client_id": "84354792132-r7u10ishspbki1udsdhbpq1khuhg2m5k.apps.googleusercontent.com",
          "client_type": 1,
          "android_info": {
            "package_name": "com.example.countryslist",
            "certificate_hash": "65e172b4e0dc9fd5ac9ff8dddbf0d54c6ea09412"
          }
        },
        {
          "client_id": "84354792132-74663ohhdc1emrofii8hg0ctec01pcfd.apps.googleusercontent.com",
          "client_type": 3
        }
      ],
      "api_key": [
        {
          "current_key": "AIzaSyDS5QhmtzBQMqKhUCzE4T9ftoqCuesqNrU"
        }
      ],
      "services": {
        "appinvite_service": {
          "other_platform_oauth_client": [
            {
              "client_id": "84354792132-74663ohhdc1emrofii8hg0ctec01pcfd.apps.googleusercontent.com",
              "client_type": 3
            }
          ]
        }
      }
    }
  ],
  "configuration_version": "1"
}